{
  "project_info": {
    "project_number": "9568283722",
    "firebase_url": "https://leonidas-c8361.firebaseio.com",
    "project_id": "leonidas-c8361",
    "storage_bucket": "leonidas-c8361.appspot.com"
  },
  "client": [
    {
      "client_info": {
        "mobilesdk_app_id": "1:9568283722:android:c0b7a7ff8d1a5188",
        "android_client_info": {
          "package_name": "app.dnaz.leonidas"
        }
      },
      "oauth_client": [
        {
          "client_id": "9568283722-gb64b18g1q24bga36opgnuvnu209jt6b.apps.googleusercontent.com",
          "client_type": 3
        }
      ],
      "api_key": [
        {
          "current_key": "AIzaSyA5wYz5Uwv2tavuzK6sGcyMD17F2TlbdU4"
        }
      ],
      "services": {
        "analytics_service": {
          "status": 1
        },
        "appinvite_service": {
          "status": 1,
          "other_platform_oauth_client": []
        },
        "ads_service": {
          "status": 2
        }
      }
    }
  ],
  "configuration_version": "1"
}